{
  "name": "client",
  "version": "1.0.0",
  "description": "",
  "main": "index.js",
  "scripts": {
    "start": "webpack-dev-server --mode=development --hot --open",
    "build": "webpack --mode=production --progress",
    "test": "elm-test"
  },
  "author": "",
  "license": "MIT",
  "devDependencies": {
    "elm-test": "^0.19.0-beta9",
    "elm-webpack-loader": "^5.0.0",
    "html-webpack-plugin": "^3.2.0",
    "webpack": "^4.17.0",
    "webpack-cli": "^3.1.0",
    "webpack-dev-server": "^3.1.4"
  }
}